{
  "project_info": {
    "project_number": "284621014130",
    "project_id": "okaygo-qa",
    "storage_bucket": "okaygo-qa.appspot.com"
  },
  "client": [
    {
      "client_info": {
        "mobilesdk_app_id": "1:284621014130:android:f9ecd48cf1a4697ed62eeb",
        "android_client_info": {
          "package_name": "com.okaygo.company"
        }
      },
      "oauth_client": [
        {
          "client_id": "284621014130-ahqoorbuj5aej658qdhv9dv9o4sp9fm6.apps.googleusercontent.com",
          "client_type": 3
        }
      ],
      "api_key": [
        {
          "current_key": "AIzaSyAPdgxZZY-ePnWjW57OiKiGl7hHSpQ89G8"
        }
      ],
      "services": {
        "appinvite_service": {
          "other_platform_oauth_client": [
            {
              "client_id": "284621014130-ahqoorbuj5aej658qdhv9dv9o4sp9fm6.apps.googleusercontent.com",
              "client_type": 3
            }
          ]
        }
      }
    },
    {
      "client_info": {
        "mobilesdk_app_id": "1:284621014130:android:5573b6d20d5b8f36d62eeb",
        "android_client_info": {
          "package_name": "com.okaygo.worker"
        }
      },
      "oauth_client": [
        {
          "client_id": "284621014130-ahqoorbuj5aej658qdhv9dv9o4sp9fm6.apps.googleusercontent.com",
          "client_type": 3
        }
      ],
      "api_key": [
        {
          "current_key": "AIzaSyAPdgxZZY-ePnWjW57OiKiGl7hHSpQ89G8"
        }
      ],
      "services": {
        "appinvite_service": {
          "other_platform_oauth_client": [
            {
              "client_id": "284621014130-ahqoorbuj5aej658qdhv9dv9o4sp9fm6.apps.googleusercontent.com",
              "client_type": 3
            }
          ]
        }
      }
    }
  ],
  "configuration_version": "1"
}